<?xml version="1.0" encoding="UTF-8" standalone="no"?>
<!-- Created with Inkscape (http://www.inkscape.org/) -->
<svg id="svg2" xmlns:rdf="http://www.w3.org/1999/02/22-rdf-syntax-ns#" xmlns="http://www.w3.org/2000/svg" xml:space="preserve" height="720" viewBox="0 0 570 720" width="570" version="1.1" xmlns:cc="http://creativecommons.org/ns#" xmlns:dc="http://purl.org/dc/elements/1.1/"><metadata id="metadata8"><rdf:RDF><cc:Work rdf:about=""><dc:format>image/svg+xml</dc:format><dc:type rdf:resource="http://purl.org/dc/dcmitype/StillImage"/><dc:title/></cc:Work></rdf:RDF></metadata><path id="path610" d="m256.11 109.5h15.16v-5.18h-15.16zm83.84-25.006-8.38 0.414c-0.17 0.013-0.32 0.12-0.38 0.28l-15.68 41.872c-0.11 0.28 0.09 0.57 0.38 0.57h5.31c0.17 0 0.33-0.1 0.4-0.26l3.81-9.8h14.68l3.83 9.8c0.05 0.16 0.21 0.26 0.39 0.26h10.38c0.3 0 0.51-0.29 0.42-0.56l-14.75-42.296c-0.05-0.173-0.23-0.293-0.41-0.28zm76.34 0.414c-0.18 0-0.36 0.133-0.41 0.306l-12.72 41.446c-0.08 0.26 0.09 0.52 0.37 0.55h5.76c0.19 0 0.35-0.12 0.4-0.31l2.99-10.17 11.99 0.4 2.98 9.79c0.06 0.17 0.22 0.29 0.4 0.29h9.98c0.28 0 0.48-0.28 0.4-0.55l-12.62-41.446c-0.05-0.173-0.22-0.306-0.41-0.306zm-51.52 0.426c-0.24 0-0.42 0.187-0.42 0.427v41.449c0 0.22 0.17 0.41 0.38 0.42l5.63 0.43c0.24 0.01 0.45-0.17 0.45-0.43v-26.07l17.56 25.89c0.08 0.12 0.22 0.18 0.36 0.18h5.72c0.24 0 0.43-0.18 0.43-0.42v-41.449c0-0.24-0.19-0.427-0.43-0.427h-5.3c-0.23 0-0.42 0.187-0.42 0.427v20.049l-15.36-20.302c-0.08-0.107-0.2-0.174-0.33-0.174zm82.06 0c-0.24 0-0.44 0.187-0.43 0.427l0.41 41.039c0.02 0.22 0.19 0.41 0.42 0.41l9.72 0.32c5.44 0 10.62-1.72 14.64-5.19 4-3.46 6.6-8.22 7.24-13.52v-0.01c0.65-5.18-0.76-10.491-3.9-14.824-3.66-4.159-8.36-7.332-12.84-8.278zm-148.4 0.214c-3.28-0.107-6.46 0.88-10.06 4.252-3.6 3.373-6.29 9.732-6.4 16.3-0.1 6.58 2.16 13.04 5.76 16.52 3.62 3.5 6.88 4.59 10.26 4.59 3.37 0 6.74-0.97 9.42-3.05 0.14-0.11 0.19-0.26 0.16-0.42l-1.33-7.26c-0.07-0.42-0.64-0.48-0.8-0.08-1 2.45-3.31 4.26-6.12 4.56h-0.01c-2.7 0.4-5.27-0.79-6.88-3.08-1.35-3.64-2.07-7.5-1.96-11.44 0.09-3.96 1.04-7.814 2.6-11.48 1.2-2.28 3.7-3.786 6.29-3.786 2.69 0 5.09 1.586 6.19 3.932 0.17 0.374 0.72 0.307 0.8-0.093l1.17-5.719c0.03-0.16-0.03-0.32-0.15-0.414-2.52-2.026-5.68-3.226-8.94-3.332zm-246.8 0.213c-0.235 0-0.424 0.187-0.424 0.427v5.199c0.001 0.226 0.191 0.413 0.424 0.413h9.963v35.83c0 0.24 0.19 0.43 0.425 0.43h9.221c0.235 0 0.424-0.19 0.424-0.43v-35.83h10.496c0.234 0 0.423-0.187 0.424-0.413v-5.199c0-0.24-0.189-0.427-0.424-0.427zm42.295 0c-0.234 0-0.423 0.187-0.422 0.427v41.442c-0.001 0.23 0.176 0.42 0.402 0.43l9.546 0.43c0.24 0 0.44-0.2 0.44-0.44l-0.42-16.11h1.95l7.31 15.87c0.06 0.14 0.2 0.24 0.36 0.25l9.54 0.43c0.32 0.01 0.53-0.31 0.41-0.59l-7.18-17.65c2.44-1.16 4.33-2.92 5.66-5.21 1.34-2.28 1.99-5.01 1.76-7.761-0.21-2.733-1.3-5.266-3.06-7.332-1.75-2.08-4.05-3.613-5.39-3.959zm51.836 0c-0.18 0-0.34 0.12-0.41 0.307l-12.61 41.442c-0.08 0.27 0.12 0.55 0.41 0.55h5.72c0.19 0 0.36-0.13 0.41-0.31l2.88-10.18 12.08 0.4 2.99 9.78c0.05 0.19 0.21 0.31 0.4 0.31h9.97c0.28 0 0.48-0.28 0.4-0.55l-12.61-41.442c-0.05-0.187-0.21-0.307-0.4-0.307zm34.99 0c-0.24 0-0.43 0.187-0.43 0.427v41.442c0 0.23 0.18 0.42 0.39 0.43l5.63 0.41s0.01 0 0.01 0.02c0.24 0 0.44-0.19 0.44-0.43v-26.07l17.56 25.88c0.08 0.12 0.21 0.19 0.35 0.19h5.62c0.23 0 0.43-0.19 0.43-0.43v-41.442c0-0.24-0.2-0.427-0.43-0.427h-5.2c-0.22 0-0.42 0.187-0.42 0.427v20.142l-15.35-20.396c-0.08-0.106-0.2-0.173-0.33-0.173zm314.84 0c-0.19 0-0.36 0.12-0.42 0.307l-12.61 41.442c-0.08 0.27 0.12 0.55 0.41 0.55h5.72c0.19 0 0.36-0.13 0.42-0.31l2.86-10.18 12.1 0.4 2.98 9.78c0.06 0.19 0.22 0.31 0.4 0.31h9.98c0.28 0 0.48-0.28 0.4-0.55l-12.62-41.442c-0.05-0.187-0.22-0.307-0.41-0.307zm-260.5 0.32c-3.69 0.213-7.37 1.626-9.81 3.999-2.43 2.387-3.41 5.333-3.41 8.186 0 0.013 0.01 0.013 0.01 0.026 0.11 2.948 1.09 5.798 4.17 8.558 3.08 2.77 7.22 5.84 11.55 8.81 0.85 0.76 1.33 1.91 1.33 3.06-0.09 1.26-0.57 2.28-1.5 3.05-2.03 1.09-4.47 1.51-6.39 1.25-1.92-0.25-3.31-0.94-4.41-1.94-1-1.11-1.7-2.5-1.84-4.14-0.04-0.48-0.74-0.52-0.84-0.05l-1.7 7.47c-0.02 0.12 0 0.25 0.07 0.34 1.31 1.8 3.41 2.91 5.73 3.24 1.79 0.33 3.6 0.41 5.4 0.25 1.79-0.17 3.58-0.57 6.14-1.43 2.57-0.88 5.42-3.51 6.41-6.22 1-2.7 1.11-4.9 0.67-6.98-0.44-2.11-1.55-3.98-3.3-5.58-1.76-1.58-4.01-2.97-6.46-4.25 0-0.01-0.02-0.01-0.03-0.01-2.33-1.03-4.27-2.85-5.28-5.188-0.49-1.359-0.39-2.826 0.2-4.106 0.68-1.266 1.85-2.133 3.23-2.533 0.01 0 0.02 0 0.04-0.013 1.49-0.6 3.3-0.693 4.85-0.147 1.55 0.547 2.83 1.64 3.73 3.2 0.2 0.32 0.68 0.267 0.79-0.107l1.43-5.239c0.05-0.173-0.02-0.36-0.16-0.453-3-2.187-6.8-3.16-10.6-3.053zm222.7 4.773c3.33 0.986 6.25 2.812 8.3 5.452 2.18 2.786 3.42 6.204 3.42 9.704 0 3.51-1.14 7.03-3.4 9.8-2.14 2.63-5.06 4.53-8.47 5.39zm-352.28 0.28c0.25 0 0.52 0.013 0.8 0.053 1.25 0.133 2.56 0.506 3.86 1.533 1.31 1.04 2.41 3.146 2.41 5.439 0 2.321-1 4.411-2.81 5.811-0.9 0.71-1.93 1.19-3 1.43-0.97 0.21-1.97 0.17-2.94-0.02l-0.14-14.127c0.42-0.079 1.06-0.146 1.82-0.119zm227.44 4.252 5.06 16.134h-10.6zm85.86 2.36 3.8 13.354h-7.97zm-270.42 0.84 3.81 13.354h-7.98zm349.82 0 3.8 13.354h-7.97zm-475.1-98.586c-1.378 0-2.862 0.10665-4.241 0.4266-1.484 0.21331-2.861 0.6399-4.345 1.1598-2.863 1.1732-5.5137 2.8663-7.8457 5.1993-2.2267 2.2263-3.9226 4.9863-5.088 7.8523-0.5306 1.373-0.9533 2.853-1.272 4.239-0.21197 1.48-0.3173 2.853-0.3173 4.24v47.06h570v-47.06c0-1.387-0.22-2.76-0.43-4.24-0.32-1.386-0.63-2.866-1.27-4.239-1.17-2.866-2.86-5.626-5.09-7.8523-2.33-2.333-4.99-4.0261-7.84-5.1993-1.49-0.5199-2.87-0.94649-4.35-1.1598-1.37-0.31995-2.86-0.4266-4.13-0.4266zm-23.109 143.65v553.24c0 1.38 0.10533 2.76 0.31733 4.24 0.31867 1.38 0.74137 2.86 1.272 4.24 1.1654 2.86 2.864 5.62 5.0893 7.85 2.332 2.33 4.9814 4.02 7.8444 5.19 1.484 0.53 2.861 0.95 4.345 1.17 1.379 0.31 2.863 0.42 4.241 0.42h523.78c1.27 0 2.76-0.11 4.14-0.42 1.48-0.22 2.85-0.64 4.34-1.17 2.86-1.17 5.51-2.86 7.84-5.19 2.23-2.23 3.92-4.99 5.1-7.85 0.64-1.38 0.94-2.86 1.26-4.24 0.22-1.48 0.43-2.86 0.43-4.24v-553.24zm286.88 38.78c3.84 0.13 7.32 3.16 9.52 10.72 9.08 12.07 9.71 28.66 20.35 39.54 13.7 7.3 25.17-9.78 38.9-10.39 13.61 0.08-11.01 21.05-1.69 31.94 6.82 14.12 13.14 30.8 6.45 45.65 0.48 14.24 16.2 10.96 23.01 3.4 5.64-10.45 38.24-4.51 18.44 3.17-11.86 16.65 15.79 18.12 23.96 8.69 14.74-6.83 31.46-14.46 47.59-7.3 4.49 5.13-12.73 15.57-10.05 26.93-1.35 16.25-12.98 29.86-10.92 46.6-0.8 17.74 30.18-4.07 21.84 6.92-11.91 32.05-43.82 52.05-75.48 61.17-18.72 12.9 15.62 17.3 22.68 26.61 5.06 3.57 10.44 5.85 16.54 6.78-15.24 5.82-33.46 3.42-45.16 18.24-12.56 11.44-30.08 10.85-45.58 13.88-5.23 9.82-17.08-11.15-29.16-7.41-11.71-1.11-20.83-32.31-30.31-14.64-6.85 18.54 4.72 36.54 1.16 55.02 0.91 12.96-14.45-3.68-6.69-8.59-0.72-14.42-3.91-28.67-1.68-42.93-8.51-20.42-22.04 12.3-34.03 12.48-13.84-0.37-20.84 16.91-31.37 5.12-22.76 1.11-39.55-11.41-56.72-23.95-9.8-2.64-40.6-3.88-16.21-10.68 7.76-11.95 28.4-8.95 33.6-22.08-4.74-14.58-28.08-7.01-37.11-19.3-15.33-11.64-29.84-24.85-40.915-40.81-8.561-18.41 7.765-1.32 15.685-10.49 11.87-13.39-5.36-31.69-7.51-46.56 0.48-11.57-6.987-24.91-12.523-30.19 10.753-9.23 26.773-5.19 37.873 1.47 11.4 5.06 24.52 15.71 36.66 7.65 10.97-8.25-17.98-21.44 2.85-20.43 11.35 3 35.52 26.16 38.16 4.74-6.83-12.12-4.77-27.17 3.61-38.17 10.59-13.17 4.36-30.18-3.61-42.5 13.39-1.78 24.6 6.92 35.53 13.2 17.56 0.82 13.18-24.84 22.88-34.41 3.46-9.11 12.1-19.35 19.43-19.09zm-189.99 337.53 22.577 23.75-32.753 31.27 21.943 36.47-54.807-59.89 37.104 3.17zm376.11 2.23 3.81 35.41 36.16-0.21-55.56 53.85 22.59-33.18-30.54-31.81zm-342.72 16.01c4.45 4.67 9.23 9.12 14.21 13.47 5.08 4.34 10.39 8.48 16 12.4 5.62 4.02 11.56 7.73 17.71 11.23s12.51 6.68 19.08 9.64c6.68 2.98 13.47 5.63 20.45 7.85 7 2.34 14.22 4.24 21.42 5.83 14.64 3.18 29.69 4.88 44.85 4.98 15.04 0 30.09-1.48 44.73-4.45 7.31-1.58 14.52-3.49 21.52-5.72 7.09-2.22 13.88-4.77 20.56-7.63 6.57-2.87 13.04-6.04 19.19-9.44 6.14-3.5 12.08-7.2 17.7-11.03 5.72-3.92 11.03-8.05 16.11-12.29 5.2-4.35 9.97-8.8 14.52-13.36l36.47 38.58h0.1l-0.21 0.11c-5.61 5.73-11.65 11.24-18.01 16.54s-13.04 10.39-20.15 15.16c-6.99 4.88-14.41 9.44-22.04 13.68-7.75 4.24-15.69 8.16-23.96 11.66-8.27 3.6-16.85 6.78-25.55 9.54-8.8 2.75-17.7 4.98-26.82 6.89-18.23 3.71-37 5.51-55.76 5.4-18.87-0.21-37.52-2.33-55.65-6.25-9.12-2.01-18.02-4.45-26.71-7.42-8.69-2.86-17.17-6.15-25.45-9.75-8.16-3.71-16.11-7.74-23.74-12.09-7.64-4.45-14.94-9.11-21.94-13.99-7-4.98-13.57-10.17-19.83-15.59-6.25-5.39-12.191-11.02-17.81-16.74l0.214-0.21zm25.55 36.89-31.06 15.9 5.19 3.92 8.37-3.81 15.59 11.02-0.95 7.42 12.62 7.53 3.7-33.61zm252.61 2.65-13.14 7.74-0.32 34.87 5.62-3.39 0.53-6.57 17.07-9.44 6.14 3.5 11.35-8.16zm-251.76 3.92-1.8 13.89-10.49-7.85zm244.66 7.73 12.08 8.07-12.61 6.78zm-215.94 2.12-13.35 28.21 27.88 11.98 2.23-5.2-14-6.68 9.44-22.57zm198.45 0.43-34.98 13.15 2.12 5.3 10.91-3.82 9.02 24.07 12.18-5.09-8.9-23.64 11.77-5.2zm-279.01 1.17c5.41 4.78 11.02 9.33 16.74 13.57 5.83 4.35 11.67 8.37 17.82 12.19l-7.11 9.01zm358.09 1.06-29.89 34.56-6.04-8.27c6.36-3.82 12.5-8.06 18.54-12.4 5.94-4.46 11.78-9.01 17.39-13.89zm-247.1 9.75-8.59 30.11 26.93 7.52c1.7 0.64 3.71 0.75 5.72 0.11 1.91-0.63 3.5-1.8 4.56-3.28 1.06-1.59 1.7-3.5 1.59-5.41 0-1.91-0.73-3.82-1.91-5.3 1.59-0.64 2.98-1.8 3.92-3.18 0.96-1.49 1.5-3.18 1.5-4.98 0-1.6-0.54-3.4-1.5-4.88-1.05-1.49-3.92-3.39-3.92-3.39zm122.12 4.77c-1.16 0-2.44 0.11-3.5 0.32l-24.49 4.03 3.61 31.48 13.15-2.54-1.17-10.39 3.92-0.85 9.01 9.22 13.15-2.96-8.06-9.12c0.84-0.74 1.7-1.59 2.44-2.54 0.63-1.06 1.16-2.23 1.48-3.5 0.32-1.17 0.43-2.44 0.22-3.71-0.11-1.27-0.43-2.44-0.96-3.39-0.54-1.06-1.16-2.02-2.02-2.87-0.96-0.95-2.01-1.69-3.08-2.22-1.16-0.53-2.42-0.85-3.7-0.96zm-111.31 2.76 7 1.38s0.85 0.31 1.37 0.63c0.54 0.22 0.96 0.64 1.39 1.06 0.73 1.06 0.84 2.23 0.63 3.29-0.22 0.95-0.84 2.01-1.91 2.54-0.64 0.32-1.16 0.43-1.69 0.53-0.64 0-1.59-0.21-1.59-0.21l-7.43-1.8zm34.03 2.54-1.59 30.96 35.72 0.74 0.53-4.77-21.84-1.06 0.54-7.42 14 0.1v-4.87l-14-0.53 0.1-6.47 21.42 0.11v-5.62zm68.48 0.96s2.22 0.63 3.18 1.48c0.95 0.85 1.59 1.91 1.8 3.08 0.32 1.06 0.22 2.33-0.32 3.49-0.53 1.17-1.37 2.12-2.44 2.65l-6.68 1.06-1.69-10.91zm-105.68 8.69 7.84 2.76s1.26 0.31 1.8 0.74c0.53 0.32 0.96 0.85 1.38 1.48 0.31 0.64 0.52 1.27 0.52 1.91 0 0.74-0.1 1.27-0.32 1.8-0.21 0.53-0.52 1.06-0.94 1.59-0.43 0.43-1.07 0.85-1.7 1.06-0.74 0.21-1.38 0.21-2.01 0.11-0.32 0-0.64-0.11-0.96-0.21-0.32-0.11-7.84-2.97-7.84-2.97z" stroke-width="1.3332" fill="#179164"/></svg>
