<?xml version="1.0" encoding="UTF-8" standalone="no"?>
<!-- Created with Inkscape (http://www.inkscape.org/) -->
<svg id="svg2284" xmlns:rdf="http://www.w3.org/1999/02/22-rdf-syntax-ns#" xmlns="http://www.w3.org/2000/svg" height="24" width="24" version="1.0" xmlns:cc="http://creativecommons.org/ns#" xmlns:dc="http://purl.org/dc/elements/1.1/">
 <metadata id="metadata43">
  <rdf:RDF>
   <cc:Work rdf:about="">
    <dc:format>image/svg+xml</dc:format>
    <dc:type rdf:resource="http://purl.org/dc/dcmitype/StillImage"/>
    <dc:title/>
   </cc:Work>
  </rdf:RDF>
 </metadata>
 <path id="path3194" stroke-linejoin="round" d="m23.94 12a11.94 11.934 0 1 1 -23.88 0 11.94 11.934 0 1 1 23.88 0z" stroke="#0000fe" stroke-linecap="square" stroke-width=".11997" fill="#fff"/>
 <path id="path5096" stroke-linejoin="round" d="m0.72896 13.262c0.57954 5.256 4.7572 9.429 10.016 10.007h2.52c5.6638-0.63055 10.08-5.4375 10.08-11.266 0-5.828-4.4088-10.632-10.072-11.263m-2.5339-0.0001c-5.2543 0.5777-9.4249 4.7352-10.01 9.9851" stroke="#0000fe" stroke-width=".11988" fill="#fff"/>
 <g id="layer1" transform="matrix(0.048 0 0 .047974 1.9826e-7 14.399)" fill="#0000fe">
  <path id="path2370" d="m36.749-134.72-3.0469 7.8906 50.859 35.781 3.125-8.125-13.906-9.6875 4.6875-12.031 16.875 1.9531 3.125-8.0469zm15.234 10.547 17.812 2.1875-3.125 8.0469z"/>
  <path id="path2366" d="m68.587-175.92 43.163 29.515-4.9268 7.2052-43.163-29.515-6.1981 9.0643-6.6135-4.5222 17.323-25.334 6.6135 4.5222z"/>
  <path id="path2364" d="m123.61-161.63-41.126-44.101 6.3193-5.8931 35.664 38.243 16.126-15.038 5.4623 5.8573z"/>
  <path id="path2362" d="m141.61-252.11-7.3438 4.1406 16.172 60 7.6562-4.2969-4.6094-16.328 11.328-6.25 11.719 12.266 7.5781-4.1406zm4.9219 17.891 12.344 12.969-7.5781 4.2188z"/>
  <path id="path2358" d="m220.85-215.73-27.168-35.242 9.006 39.394-8.4234 1.9257-13.439-58.785 8.4234-1.9257 24.206 31.58-8.0633-35.271 8.4234-1.9257 13.439 58.785z"/>
  <path id="path2356" d="m253.82-270.05-0.11508 52.289-8.7286-0.0192 0.11509-52.289-10.981-0.0242 0.0176-8.0118 30.69 0.0675-0.0177 8.0118-10.981-0.0242z"/>
  <path id="path2354" d="m274.11-215.03 6.5938-59.94 8.4088 0.92502-6.5938 59.94z"/>
  <path id="path2352" d="m329.2-245.54c1.3542-5.7321 0.22425-9.331-3.39-10.797-1.612-0.65363-3.1292-0.86384-4.5516-0.63056-1.4224 0.23335-2.791 0.97353-4.1058 2.2206-1.3149 1.2471-2.6323 3.0597-3.9523 5.4378-1.3201 2.3782-2.7129 5.3744-4.1785 8.9886-3.2692 8.0617-4.8776 14.143-4.8253 18.243 0.0523 4.1004 1.8024 6.8497 5.2504 8.2479 1.1674 0.4734 2.2167 0.64005 3.1478 0.49997 0.93113-0.14009 1.7852-0.48976 2.5623-1.049 0.77705-0.55923 1.446-1.2917 2.007-2.1974 0.56088-0.90568 1.0553-1.8863 1.4834-2.9417l8.0074 3.2471c-1.0028 2.3122-2.2603 4.2948-3.7724 5.9479-1.5121 1.6532-3.167 2.9407-4.9644 3.8627-1.7975 0.92192-3.702 1.428-5.7135 1.5183-2.0115 0.0902-3.9904-0.25926-5.9366-1.0485-6.0052-2.4352-9.3918-6.6572-10.16-12.666-0.76815-6.0089 0.9447-14.185 5.1386-24.527 3.6978-9.1188 7.8838-15.45 12.558-18.993 4.6742-3.5431 9.7908-4.1875 15.35-1.9334 2.2805 0.92484 4.1686 2.2571 5.6643 3.9967 1.4956 1.7397 2.5112 3.7861 3.0469 6.1392 0.49115 1.8194 0.6939 3.5535 0.60828 5.2022-0.0858 1.6487-0.50793 3.8081-1.2666 6.478z"/>
  <path id="path2350" d="m390.94-206.42c3.2489-4.9128 3.43-8.6806 0.54347-11.303-1.2875-1.1697-2.639-1.8905-4.0545-2.1623-1.4156-0.27176-2.9556-0.0493-4.6199 0.66756-1.6644 0.71685-3.5264 1.9636-5.5858 3.7402-2.0596 1.7767-4.4006 4.1083-7.0233 6.9949-5.85 6.4387-9.4578 11.591-10.824 15.458-1.3658 3.8666-0.6717 7.0509 2.0822 9.553 0.93235 0.84714 1.8597 1.3656 2.782 1.5554 0.92228 0.18978 1.8446 0.15628 2.7669-0.10046 0.92225-0.25677 1.8029-0.71344 2.6419-1.37 0.83895-0.65657 1.6414-1.4063 2.4073-2.2492l6.3953 5.8106c-1.739 1.8242-3.6034 3.2512-5.593 4.2811-1.9897 1.0299-3.9871 1.6674-5.9923 1.9126-2.0052 0.24509-3.9674 0.063-5.8864-0.54632-1.9191-0.60935-3.6559-1.6202-5.2103-3.0325-4.7961-4.3577-6.518-9.489-5.1657-15.394s5.7809-12.987 13.286-21.248c6.617-7.2829 12.73-11.781 18.34-13.494 5.6097-1.7127 10.634-0.55216 15.074 3.4816 1.8214 1.6549 3.1338 3.5568 3.9374 5.7057 0.8035 2.1489 1.0507 4.4201 0.74152 6.8134-0.1668 1.8772-0.57482 3.5747-1.224 5.0926-0.64935 1.5179-1.7906 3.399-3.4239 5.6432z"/>
  <path id="path2348" d="m376.54-160.35 48.555-35.759 5.0164 6.8116-48.555 35.759z"/>
  <path id="path2346" d="m443.39-151.23-43.734 28.663-4.7847-7.3004 43.734-28.663-6.0192-9.1841 6.7009-4.3917 16.823 25.669-6.7009 4.3917z"/>
  <path id="text2179" d="m439.97-101.13-25.734 9.0266-2.86-8.1537 25.734-9.0266 26.253-24.947 3.0092 8.5787-17.187 16.804 23.86 2.2196 3.0682 8.7472z"/>
  <path id="path2337" d="m29.625 17.832 56.168-21.94 10.315 26.407-7.882 3.079-7.171-18.359-14.165 5.533l4.552 11.653-7.7133 3.013-4.552-11.653-18.527 7.2373 8.0228 20.538-7.8796 3.078z"/>
  <path id="path2335" d="m68.19 89.017 11.727-18.844-21.6 5.1046-5.3052-7.3828 33.101-7.6061 16.394-26.851 5.3036 7.3805-10.353 16.751 19.229-4.3986 5.3052 7.3827-30.573 7.1187-17.766 28.947z"/>
  <path id="path2333" d="m132.09 70.892-39.485 45.615 6.5307 5.669 17.325-20.063 7.0276 6.1602c3.8549 3.3383 7.7621 4.7936 11.711 4.4034 3.9493-0.39008 7.7368-2.6389 11.35-6.8108 1.6493-1.9046 2.8873-3.9465 3.6954-6.025 0.80799-2.0785 1.2039-4.0989 1.1007-6.1334-0.10336-2.0344-0.67173-3.9814-1.6154-5.8706-0.94381-1.889-2.2884-3.6573-4.0573-5.1892zm0.98453 12.075 6.7292 5.816c1.7689 1.5319 2.6575 3.3714 2.725 5.4935 0.0673 2.1221-0.7366 4.1375-2.3859 6.0421-1.8064 2.086-3.6589 3.2415-5.662 3.4918-2.0032 0.25035-3.9876-0.44098-5.8922-2.0903l-6.7292-5.816z"/>
  <path id="path2329" d="m167.37 97.892-25.367 54.734 7.9087 3.6327 11.838-25.756 7.5278 3.5465-4.5808 29.081 8.0439 3.7434 4.5865-30.522c3.0669 0.2294 5.8127-0.47017 8.1774-2.1539 2.3646-1.6837 4.2731-4.2342 5.7835-7.502 1.007-2.179 1.6085-4.269 1.771-6.4078 0.1624-2.1387-0.0975-4.1833-0.79812-6.0281-0.70067-1.8447-1.8165-3.5372-3.2594-5.0634-1.443-1.5262-3.191-2.7847-5.3152-3.7665zm4.2516 11.296 8.1201 3.7606c2.1241 0.98178 3.5171 2.3887 4.2456 4.2453 0.72838 1.8566 0.58514 3.8738-0.39658 5.998-1.0317 2.2323-2.4021 3.6584-4.1691 4.2628-1.767 0.60445-3.8116 0.39743-6.0986-0.65967l-8.0439-3.7434z"/>
  <path id="path2325" d="m201.4 174.28 8.8848-59.643 28.041 4.1771-1.2468 8.3698-19.494-2.904-2.2407 15.042 12.374 1.8433-1.2201 8.1905-12.374-1.8433-2.9307 19.674 21.809 3.2487-1.2464 8.3672z"/>
  <path id="path2323" d="m288.82 160.04c0.36677 2.4335 0.27887 4.7679-0.26373 7.0032-0.54265 2.2354-1.4541 4.2384-2.7343 6.009s-2.845 3.2657-4.6944 4.4852c-1.8494 1.2194-3.9311 2.0036-6.245 2.3524-2.6109 0.39357-5.0303 0.24255-7.2581-0.45305-2.2279-0.6956-4.1835-1.7961-5.8668-3.3015s-3.0806-3.3275-4.1918-5.4664c-1.1112-2.1388-1.8502-4.424-2.2167-6.8557l8.365-1.2609c0.18775 1.2457 0.53623 2.4519 1.0454 3.6186 0.50915 1.1667 1.1789 2.1884 2.0091 3.065 0.83025 0.87667 1.8092 1.5332 2.937 1.9696 1.1278 0.43645 2.433 0.54292 3.916 0.31937 1.128-0.17002 2.1754-0.57047 3.1423-1.2014 0.96685-0.63087 1.7584-1.4178 2.3746-2.3606 0.61615-0.94283 1.0638-1.9964 1.3429-3.1606 0.27907-1.1642 0.32912-2.3402 0.1501-3.528-0.2593-1.72-0.8453-3.1936-1.758-4.4208-0.91275-1.2271-2.3619-2.3892-4.3475-3.4861-0.34173-0.25215-0.48495-0.39767-0.42968-0.43657 0.0552-0.0388-0.14722-0.175-0.60737-0.40843-0.46018-0.23337-1.4228-0.6799-2.8879-1.3396-1.4651-0.65963-3.8668-1.7989-7.2051-3.4178-2.6822-1.2956-4.7994-2.9642-6.3515-5.0061-1.5522-2.0418-2.5294-4.3971-2.9317-7.066-0.32205-2.1364-0.23825-4.1971 0.2514-6.182 0.48967-1.9848 1.3242-3.7942 2.5038-5.4285 1.1795-1.6341 2.6286-2.9905 4.3475-4.069 1.7188-1.0784 3.6455-1.7786 5.7802-2.1004 2.1365-0.322 4.1677-0.23375 6.0937 0.2647 1.9259 0.4986 3.659 1.3299 5.1992 2.4939 1.5402 1.1641 2.854 2.635 3.9413 4.4125 1.0873 1.7777 1.8308 3.7891 2.2304 6.0342l-8.1884 1.2343c-0.43075-2.059-1.3927-3.613-2.8859-4.6619s-3.1895-1.4302-5.0888-1.1439c-1.9573 0.29508-3.5196 1.1982-4.6872 2.7092-1.1675 1.5112-1.6038 3.2453-1.3087 5.2025 0.2235 1.4829 0.79695 2.6705 1.7203 3.5627 0.92333 0.8923 2.5761 1.7958 4.9584 2.7107 6.2567 2.4549 10.964 5.2038 14.123 8.2469 3.1585 3.0432 5.0642 6.7302 5.7171 11.061z"/>
  <path id="path2321" d="m341.94 141.23c1.1525 2.1744 1.8432 4.406 2.0721 6.6948 0.22883 2.2889 0.0327 4.4808-0.58835 6.5756-0.6211 2.0949-1.602 4.024-2.9427 5.7875-1.3408 1.7634-3.0449 3.1931-5.1125 4.2891-2.333 1.2366-4.6656 1.8959-6.9981 1.9779-2.3325 0.0821-4.5423-0.30818-6.6294-1.1707-2.0871-0.86245-4.0093-2.1185-5.7665-3.7682-1.7573-1.6497-3.2118-3.5609-4.3634-5.7337l7.4744-3.9619c0.58997 1.1131 1.3185 2.1356 2.1856 3.0676 0.86705 0.93202 1.8375 1.674 2.9113 2.226 1.0739 0.55197 2.2151 0.84697 3.4238 0.885 1.2087 0.038 2.4755-0.2941 3.8005-0.99645 1.0079-0.53423 1.8634-1.2592 2.5666-2.1749 0.70312-0.91565 1.1892-1.9204 1.458-3.0141 0.26887-1.0937 0.34205-2.2361 0.2196-3.427-0.1225-1.1909-0.46505-2.317-1.0276-3.3784-0.81467-1.5369-1.8559-2.733-3.1237-3.5884-1.2678-0.8553-3.0202-1.4714-5.2571-1.8483-0.40595-0.12465-0.58933-0.2145-0.55008-0.26952 0.0392-0.055-0.1969-0.11633-0.70837-0.18408-0.51153-0.0677-1.5677-0.16992-3.1686-0.3068-1.6009-0.13682-4.2444-0.41577-7.9306-0.8369-2.96-0.33347-5.5105-1.2062-7.6516-2.6183-2.1411-1.412-3.8436-3.3104-5.1077-5.6951-1.0119-1.909-1.6157-3.881-1.8115-5.9159-0.19578-2.0349-0.008-4.0187 0.56322-5.9515 0.5713-1.9326 1.489-3.6926 2.7533-5.2798 1.2642-1.5871 2.8501-2.8862 4.7575-3.8973 1.909-1.0118 3.8547-1.6018 5.837-1.7697 1.9823-0.16785 3.893 0.0421 5.7319 0.62987 1.8389 0.5879 3.5659 1.5402 5.1809 2.857 1.615 1.3169 2.983 2.9682 4.1041 4.9541l-7.3166 3.8782c-1.0888-1.7998-2.5114-2.9472-4.2678-3.442-1.7564-0.49473-3.4832-0.29233-5.1803 0.60717-1.7488 0.92705-2.9237 2.2968-3.5244 4.1094-0.60075 1.8127-0.4376 3.5934 0.48937 5.3422 0.70233 1.325 1.6369 2.2554 2.8038 2.7912 1.1668 0.53585 3.0257 0.84063 5.5765 0.9143 6.7167 0.24263 12.069 1.2761 16.058 3.1005 3.9886 1.8244 7.0084 4.6716 9.0597 8.5414z"/>
  <path id="path2319" d="m400.76 122.35-5.8396 4.5127-23.819-21.403 14.776 28.392-6.0525 4.6774-44.423-41.879 6.6936-5.1728 23.708 22.288-15.019-29.002 5.4114-4.1819 24.136 21.957-15.447-28.671 6.6936-5.1728z"/>
  <path id="path2317" d="m387.65 47.195-4.9984 6.8338 39.667 47.863 5.1946-7.036-10.955-12.98 7.6556-10.445 15.834 6.3322 5.0583-6.9267zm11.863 14.223 16.636 6.7184-5.1182 7.0195z"/>
  <path id="text2192" d="m438.79 21.079 25.219 10.378-3.2882 7.9906-25.219-10.378-36.197 1.1638 3.4596-8.4072 24.011-1.1143-16.339-17.529 3.5276-8.5723z"/>
 </g>
 <path id="path2198" d="m10.741 4.6079c-3.1261 0.5318-5.595 2.999-6.127 6.1241h0.30375c-0.072847 0.4104-0.1125 0.83189-0.1125 1.2631 0 0.43117 0.039657 0.85267 0.1125 1.263h-0.3038c0.15235 0.89492 0.4638 1.7354 0.90375 2.4924l2.6699-9.4143-1.9612 10.427c1.1208 1.3549 2.7069 2.3123 4.515 2.6198v-0.304c0.4106 0.0728 0.83233 0.11244 1.2638 0.11244 0.43142 0 0.85314-0.0398 1.2637-0.11244v0.30358c3.1266-0.5318 5.5955-2.999 6.1275-6.1242h-0.30375c0.07286-0.41038 0.1125-0.83188 0.1125-1.263 0-0.43119-0.03965-0.85268-0.1125-1.2631h0.30375c-0.534-3.1261-3.002-5.5933-6.129-6.1251v0.3036c-0.411-0.0728-0.832-0.1124-1.264-0.1124-0.43142 0-0.85314 0.0396-1.2638 0.11244z" fill="#0000fe"/>
 <g id="layer2" transform="matrix(0.048 0 0 .047974 1.9826e-7 14.399)">
  <path id="path17872" d="m-1.6 50.4c0 2.2091-1.7909 4-4 4s-4-1.7909-4-4 1.7909-4 4-4 4 1.7909 4 4z" transform="matrix(2.3437 0 0 2.3437 183.86 -304.86)" fill="#fff"/>
  <path id="path2253" fill="#f90003" d="m278.65 23.677c-10.1-1.603-24.55-5.215-32.11-8.027-21.2-7.8731-34.6-11.234-60.78-15.241-13.25-2.0271-24.67-4.7536-25.65-5.1175 0.9818-4.6361 0.99727-10.205 4.1282-20.927 8.3269-28.517 13.983-64.674 17.182-109.83l2.8246-39.877 18.531 1.3522c32.288 2.356 63.687 15.646 99.953 42.308 11.984 8.81 27.146 18.716 33.694 22.012 11.363 5.7212 42.973 14.833 55.168 16.328 0 0 1.2276 0.58778-10.822 13.429-10.934 11.652-25.621 23.909-43.052 35.931l-4.9885 3.4404 6.8678 15.892c3.7773 8.7408 11.993 23.413 18.257 32.605 6.2642 9.1921 11.39 17.264 11.39 17.938 0 2.415-72.623 0.63935-90.596-2.2151z"/>
 </g>
 <path id="path29592" d="m10.745 23.221h-0.06-0.06v0.001 0.004 0.0613 0.60591h0.12v-0.60591-0.0613-0.004-0.001z" fill-rule="evenodd" fill="#0d0dfe"/>
 <path id="path29596" d="m13.385 23.221h-0.06-0.06v0.001 0.004 0.0613 0.60591h0.12001v-0.60591-0.0613-0.004-0.001z" fill-rule="evenodd" fill="#0d0dfe"/>
 <path id="path29599" d="m10.745 0.09762h-0.06-0.06v0.001 0.004 0.064 0.63297h0.12v-0.63297-0.064-0.004-0.001z" fill-rule="evenodd" fill="#0d0dfe"/>
 <path id="path29601" d="m13.385 0.13361h-0.06-0.06v0.001 0.004 0.0607 0.60051h0.12001v-0.60051-0.0607-0.004-0.001z" fill-rule="evenodd" fill="#0d0dfe"/>
 <rect id="rect7097" height="2.5186" width=".43278" y="10.736" x="23.045" stroke-width="0" fill="#fff"/>
 <rect id="rect11034" transform="rotate(90)" height="2.52" width=".43254" y="-13.265" x="23.125" stroke-width="0" fill="#fff"/>
 <path id="path3197" fill="#f90003" d="m0.0795 10.621c-0.051952 0.453-0.0795 0.913-0.0795 1.379 0 0.467 0.027548 0.927 0.0795 1.38h23.84c0.052-0.453 0.08-0.913 0.08-1.38 0-0.466-0.028-0.926-0.08-1.379z"/>
 <path id="text3202" fill="#fff" d="m2.8066 12.746c-0.033017 0.0456-0.062873 0.0843-0.089567 0.11604-0.0267 0.0317-0.052739 0.0602-0.078118 0.0855-0.025383 0.0254-0.051403 0.0482-0.078059 0.0685-0.026661 0.0203-0.055219 0.0405-0.085672 0.0608-0.10919 0.0761-0.22918 0.1356-0.35995 0.17869-0.13078 0.043-0.26219 0.0646-0.39425 0.0646-0.18034 0-0.3505-0.0342-0.51049-0.10271-0.16-0.069-0.29968-0.162-0.41902-0.281-0.11935-0.12-0.21329-0.259-0.28184-0.419-0.06855-0.159-0.10282-0.33-0.10282-0.513-2.1e-7 -0.18504 0.034912-0.35801 0.10474-0.51895 0.069824-0.16092 0.16441-0.30095 0.28376-0.42006 0.11934-0.11917 0.26027-0.21292 0.42279-0.28138 0.16251-0.0685 0.33645-0.10271 0.52183-0.10271 0.10927 0 0.21151 0.0108 0.30671 0.0323 0.095203 0.0216 0.18597 0.0553 0.27231 0.10079 0.086328 0.0456 0.1695 0.10403 0.24952 0.17492 0.080013 0.071 0.15939 0.15587 0.23813 0.25472l-0.39617 0.27761c-0.096563-0.12167-0.2007-0.20976-0.31241-0.26425-0.11171-0.0544-0.23739-0.0818-0.37704-0.0818-0.11687 0-0.22544 0.0216-0.32572 0.0646s-0.18789 0.10139-0.26283 0.1749c-0.07494 0.0735-0.13399 0.16033-0.17716 0.26041-0.043167 0.10019-0.064749 0.2072-0.064749 0.3213-7.3e-7 0.11664 0.021583 0.22491 0.064749 0.32504 0.043166 0.10019 0.10222 0.18757 0.17716 0.26235 0.074939 0.0747 0.16255 0.13368 0.26283 0.17675 0.10028 0.0431 0.20885 0.0646 0.32572 0.0646 0.099039 0 0.19426-0.0165 0.28567-0.0494 0.091406-0.033 0.1752-0.0786 0.25138-0.1368 0.02286-0.0228 0.045081-0.0451 0.066668-0.0666 0.021582-0.0216 0.050158-0.0527 0.085731-0.0932l0.39617 0.26618zm2.6956-0.76033c-0.0000032 0.18249-0.035551 0.35481-0.10666 0.51702-0.071107 0.16221-0.16697 0.30413-0.28759 0.42582-0.12063 0.12166-0.26156 0.21735-0.42279 0.28705-0.16124 0.0697-0.3333 0.10463-0.51619 0.10463-0.18026 0-0.35102-0.035-0.51229-0.10463-0.1613-0.071-0.3028-0.166-0.4247-0.286s-0.2183-0.261-0.2894-0.422-0.1067-0.332-0.1067-0.511c-2e-7 -0.18504 0.034273-0.35802 0.10282-0.51899 0.068546-0.16096 0.16249-0.30038 0.28184-0.41823 0.11934-0.11796 0.26029-0.21036 0.42284-0.27753 0.16255-0.0672 0.33775-0.10079 0.5256-0.10079 0.17778 0 0.3473 0.0348 0.50857 0.10463 0.16127 0.0697 0.30286 0.16412 0.42476 0.28329 0.1219 0.11929 0.21902 0.25794 0.29137 0.41635 0.07234 0.15841 0.10851 0.32507 0.10851 0.49996zm-0.4837 0.0108c0-0.115-0.0222-0.222-0.0666-0.322-0.0445-0.1-0.1054-0.187-0.1829-0.261-0.0775-0.073-0.1676-0.132-0.2704-0.175-0.10284-0.0431-0.21269-0.0646-0.32956-0.0646-0.11679 0-0.2266 0.0209-0.32944 0.0627-0.10284 0.0419-0.19299 0.0995-0.27045 0.173-0.077459 0.0735-0.13841 0.15907-0.18285 0.25665-0.044447 0.0977-0.066669 0.20341-0.066668 0.3175-9e-7 0.11664 0.022222 0.22616 0.066668 0.32882 0.044444 0.10271 0.10539 0.19198 0.18285 0.26802 0.077456 0.0761 0.16761 0.1356 0.27045 0.17868 0.10284 0.0431 0.21265 0.0646 0.32944 0.0646 0.11686 0 0.22672-0.0216 0.32956-0.0646 0.10284-0.0431 0.19299-0.10271 0.27045-0.17868 0.077456-0.076 0.13841-0.16538 0.18285-0.26802 0.044447-0.10271 0.066666-0.21224 0.066668-0.32882v0.0108zm2.6113 1.276-1.4322-1.76v1.7604h-0.4838v-2.547h0.47614l1.4323 1.7794v-1.779h0.49137v2.5474zm2.7192 0-1.4321-1.7604v1.7604h-0.4839v-2.547h0.47614l1.4323 1.7794v-1.779h0.49137v2.5474zm0.80327 0v-2.547h2.0341v0.48291h-1.5503v0.46387h0.89509v0.49043h-0.89509v0.62725h1.5845v0.48291zm4.5735-0.52851c-0.03302 0.0455-0.06286 0.0843-0.08957 0.11605-0.0267 0.0317-0.05273 0.0602-0.07812 0.0855-0.02538 0.0254-0.05141 0.0483-0.07806 0.0685-0.02666 0.0203-0.05522 0.0406-0.08567 0.0608-0.1092 0.076-0.22918 0.1356-0.35996 0.17869-0.13078 0.0431-0.26219 0.0646-0.39425 0.0646-0.18034 0-0.3505-0.0342-0.51049-0.10271-0.16-0.0685-0.29966-0.16219-0.41901-0.28132-0.11934-0.11917-0.21329-0.25853-0.28184-0.41821-0.06855-0.15969-0.10281-0.33081-0.10281-0.51336 0-0.18503 0.0349-0.358 0.10474-0.51894 0.06983-0.16092 0.16441-0.30096 0.28376-0.42007 0.11934-0.11916 0.26027-0.21291 0.42278-0.28137 0.16251-0.0685 0.33645-0.10271 0.52183-0.10271 0.10928 0 0.21151 0.0108 0.30671 0.0323 0.09521 0.0216 0.18597 0.0553 0.2723 0.10079 0.08633 0.0455 0.1695 0.10403 0.24952 0.17492 0.08002 0.071 0.15939 0.15586 0.23813 0.25472l-0.39616 0.27754c-0.09657-0.12167-0.2007-0.20975-0.31241-0.26425-0.1117-0.0545-0.2374-0.0818-0.37704-0.0818-0.11687 0-0.22544 0.0216-0.32572 0.0646-0.10029 0.0431-0.18789 0.10139-0.26283 0.1749-0.07494 0.0735-0.13399 0.16034-0.17716 0.26041-0.04317 0.10019-0.06475 0.2072-0.06475 0.3213 0 0.11664 0.02159 0.22491 0.06475 0.32504 0.04316 0.10019 0.10221 0.18757 0.17716 0.26235 0.07494 0.0747 0.16255 0.13368 0.26283 0.17675 0.10029 0.0431 0.20885 0.0646 0.32572 0.0646 0.09904 0 0.19426-0.0165 0.28567-0.0495 0.0914-0.033 0.1752-0.0786 0.25138-0.1368 0.02287-0.0228 0.04508-0.0451 0.06667-0.0666 0.02158-0.0216 0.05016-0.0527 0.08573-0.0932l0.39616 0.26617zm1.5745-1.536v2.0645h-0.483v-2.063h-0.877v-0.483h2.194v0.48291zm3.569 0.77563c-0.000002 0.18248-0.03556 0.35481-0.10666 0.51702-0.07112 0.1622-0.16697 0.30414-0.28759 0.42581s-0.26156 0.21735-0.42278 0.28705c-0.16123 0.0697-0.3333 0.10463-0.51619 0.10463-0.18026 0-0.35103-0.035-0.5123-0.10463-0.16127-0.0697-0.30284-0.16473-0.4247-0.28512-0.12186-0.12042-0.21835-0.26108-0.28945-0.42206-0.07111-0.16097-0.10666-0.33141-0.10666-0.51133 0-0.18503 0.03427-0.35802 0.10281-0.51899 0.06855-0.16096 0.16249-0.30038 0.28184-0.41822 0.11934-0.11797 0.26029-0.21036 0.42284-0.27754 0.16255-0.0672 0.33775-0.10078 0.5256-0.10078 0.17778 0 0.3473 0.0348 0.50858 0.10463 0.16127 0.0697 0.30286 0.16412 0.42476 0.28328 0.1219 0.11929 0.21902 0.25796 0.29137 0.41636 0.07233 0.15842 0.10852 0.32506 0.10852 0.49996zm-0.4837 0.0108c-0.000002-0.11413-0.02223-0.2212-0.06667-0.3213-0.04445-0.10019-0.1054-0.18688-0.18285-0.26041-0.07746-0.0735-0.16761-0.13182-0.27045-0.1749-0.10284-0.0431-0.21269-0.0646-0.32956-0.0646-0.11679 0-0.2266 0.0209-0.32944 0.0627-0.10284 0.0419-0.19299 0.0995-0.27045 0.173s-0.13841 0.15907-0.18286 0.25665c-0.04445 0.0977-0.06667 0.20342-0.06667 0.3175 0 0.11665 0.02223 0.22618 0.06667 0.32883 0.04445 0.10271 0.1054 0.19198 0.18286 0.26802 0.07746 0.0761 0.16761 0.1356 0.27045 0.17868 0.10284 0.0431 0.21265 0.0646 0.32944 0.0646 0.11687 0 0.22672-0.0216 0.32956-0.0646s0.19298-0.10271 0.27045-0.17868c0.07746-0.076 0.13841-0.16538 0.18285-0.26802 0.04445-0.10271 0.06666-0.21224 0.06667-0.32883v0.0108zm2.6438 1.2774-0.56368-0.95814h-0.7885v0.95814h-0.48382v-2.5474h1.5579c0.11174 0 0.21714 0.0209 0.31619 0.0627 0.09904 0.0418 0.18475 0.099 0.25714 0.17115 0.07238 0.0722 0.12951 0.1565 0.1714 0.25281 0.04189 0.0963 0.06284 0.19895 0.06284 0.30793-0.000004 0.17234-0.04953 0.32631-0.14856 0.46191-0.09905 0.1356-0.23234 0.23255-0.39988 0.29088l0.58274 0.99992h-0.56379zm0.0458-1.7527c-0.000002-0.0405-0.0083-0.0798-0.02475-0.11784-0.01651-0.0381-0.03938-0.0716-0.06858-0.10079-0.02922-0.0292-0.06351-0.052-0.10287-0.0685-0.03937-0.0165-0.08192-0.0247-0.12764-0.0247h-1.0741v0.62736h1.0741c0.04572 0 0.08828-0.008 0.12764-0.0247 0.03937-0.0165 0.07365-0.0394 0.10287-0.0685 0.02922-0.0292 0.05209-0.0627 0.06858-0.10079 0.0165-0.0381 0.02475-0.0786 0.02475-0.12165z"/>
</svg>
