<?xml version="1.0" encoding="UTF-8" standalone="no"?>
<!-- Created with Inkscape (http://www.inkscape.org/) -->
<svg id="svg2" xmlns:rdf="http://www.w3.org/1999/02/22-rdf-syntax-ns#" xmlns="http://www.w3.org/2000/svg" height="24" width="24" version="1.0" xmlns:cc="http://creativecommons.org/ns#" xmlns:dc="http://purl.org/dc/elements/1.1/">
 <metadata id="metadata3051">
  <rdf:RDF>
   <cc:Work rdf:about="">
    <dc:format>image/svg+xml</dc:format>
    <dc:type rdf:resource="http://purl.org/dc/dcmitype/StillImage"/>
    <dc:title/>
   </cc:Work>
  </rdf:RDF>
 </metadata>
 <path id="path1992" fill="#fff" d="m24 12.001a12 12 0 0 1 -24 0 12 12 0 1 1 24 0z"/>
 <path id="path2969" fill="#613314" d="m23.51 12a11.51 11.51 0 0 1 -23.019 0 11.51 11.51 0 1 1 23.019 0z"/>
 <path id="path6825" fill="#fff" d="m12.046 1.361-1.0535 1.5245l-1.5136-0.20406-0.096785 2.5322s-1.4081-0.79526-1.4081-0.79526l-0.55906 1.1943-1.2324-0.43152 0.54613 1.535-0.69672 0.30259s1.5559 3.3728 1.5559 3.3728l-1.0493 0.1188s0.19847 0.58739 0.25402 0.70127c0.42057 0.84098 1.2715 1.5074 2.1181 1.7139 0.15115 0.03687 0.53803 0.06607 0.88156 0.06639 0.7318 0.00068 1.1156-0.11022 1.9554-0.48182l0.002 1.7498 0.59028 0.0042 0.000994-1.7537c0.22593 0.07958 0.48843 0.22532 0.68928 0.28232 0.72609 0.22329 1.6146 0.26661 2.1999 0.10727 0.94413-0.25703 1.5973-0.83801 2.0842-1.854 0.09314-0.19434 0.19148-0.50036 0.19148-0.50036l-1.0734-0.10272 1.535-3.3603-0.677-0.2814 0.52097-1.5301-1.184 0.4361-0.557-1.2121-1.4176 0.75647-0.097-2.5025-1.47 0.1565-1.0391-1.5447zm-0.01677 1.0245l0.75997 1.1282 1.2086-0.11635 0.0573 1.022-0.46402 0.31552-0.25717-0.24668-0.34102 0.33753-0.0018-0.96961h-0.33683l-0.6216-0.93746-0.6209 0.93327-0.36268 0.0017-0.0073 0.96402s-0.28232-0.34941-0.28232-0.34941l-0.297 0.2632-0.438-0.3012 0.05031-1.0416 1.2125 0.12718 0.7425-1.1303zm0.01153 1.5238s0.2638 0.4341 0.2638 0.4341l0.17071 0.0017 0.000411 1.9681 0.88584-1.0349 0.19078 0.13872 0.48079-0.36968-0.17432 0.57437 0.19214 0.16848c-0.30569 0.59848-0.97625 1.7642-0.97625 1.7642s1.6352-0.8302 1.6352-0.8302l0.13662 0.20755 0.63278-0.16632-0.23469 0.60482 0.1732 0.19847s-1.8449 2.3169-1.8449 2.3169l1.6122-0.0018-0.1478 0.22292c-0.20966 0.28495-0.61401 0.48232-1.383 0.67436-0.78308 0.19556-1.0436 0.31295-1.3844 0.6244l-0.258 0.235-0.166-0.175c-0.311-0.325-0.699-0.512-1.514-0.73-0.7364-0.196-1.1437-0.41-1.3336-0.699l-0.086-0.1309 1.5266-0.0489-1.8334-2.333 0.2132-0.2271-0.29665-0.5615 0.66038 0.17924 0.1939-0.2082s1.5797 0.84976 1.5797 0.84976l-0.9852-1.8041 0.2382-0.1282s-0.21559-0.61461-0.21559-0.61461l0.49546 0.40601 0.18731-0.13542 0.9046 1.032c0.01484-0.65533 0.0127-1.3107 0.01153-1.9661l0.15409-0.000362 0.29455-0.43641zm-2.5678 2.0625l0.17401 0.30224-0.4514-0.2509-0.3092 0.3306-1.1038-0.31307 0.413 1.0853-0.35815 0.35046 1.398 1.7683-1.2554 0.02201c0.000001 0.03364 0.088913 0.28994 0.19777 0.51503 0.28938 0.56066 0.67362 1.0125 1.2596 1.2586 0.15493 0.06856 0.51459 0.18589 0.79945 0.26066s0.62685 0.18413 0.75962 0.24284c0.22473 0.09937 0.51084 0.322 0.51084 0.39763 0 0.05844-0.7444 0.3477-1.0755 0.41789-0.40596 0.08606-1.0291 0.08343-1.3596-0.0056-0.6224-0.168-1.129-0.507-1.4303-0.958-0.1103-0.166-0.2229-0.362-0.2229-0.383l1.051-0.12823-1.6202-3.579 0.61391-0.27009s-0.33613-0.87282-0.33613-0.87282l0.56045 0.22851 0.5622-1.1282 1.2229 0.7086zm6.3178-0.6684l0.37002 0.80783-1.0171 0.29316-0.274-0.3575-0.46681 0.24529s0.13627-0.29875 0.13627-0.29875l1.2516-0.69008zm0.39239 0.86618l0.13592 0.28791 0.56849-0.21454-0.32286 0.87073 0.61147 0.27673s-1.6258 3.5266-1.6258 3.5266l1.0482 0.13312s-0.0031 0.12695-0.13802 0.33508c-0.22584 0.34849-0.57994 0.63378-1.0622 0.85396-0.30982 0.14145-0.39201 0.15669-0.92768 0.17296-0.46816 0.01422-0.65836-0.0013-0.93432-0.07617-0.19059-0.05171-0.49707-0.16224-0.681-0.24563-0.32858-0.14899-0.33292-0.15341-0.24599-0.24948 0.1345-0.14862 0.56022-0.33215 1.0287-0.4434 1.3133-0.31191 1.8012-0.65831 2.2554-1.6013 0.12-0.24913 0.21838-0.50001 0.21838-0.50001l-1.3232-0.0021 1.3945-1.7264-0.35011-0.3847 0.35011-1.0133z"/>
 <path id="flowRoot4653" fill="#fff" d="m5.7768 16.461v-1.844h0.69561c0.12243 0 0.21593 0.0059 0.28051 0.01761 0.090566 0.01509 0.16646 0.04381 0.22768 0.08616 0.061215 0.04235 0.11048 0.10168 0.1478 0.17799 0.037312 0.07631 0.055973 0.16017 0.055975 0.25158-0.0000021 0.15681-0.049894 0.28952-0.14969 0.39812-0.099793 0.1086-0.28009 0.1629-0.54089 0.1629h-0.473v0.74969zm0.24403-0.96731h0.47673c0.15765 0 0.2696-0.02934 0.33585-0.08805 0.066246-0.0587 0.099371-0.1413 0.099372-0.2478-0.0000016-0.07715-0.019493-0.14319-0.058492-0.19812-0.038996-0.05493-0.090358-0.09119-0.15409-0.1088-0.041089-0.0109-0.11698-0.01635-0.22768-0.01635h-0.4717v0.65912zm1.0755 0.96731 0.70818-1.844h0.2628l0.7548 1.844h-0.278l-0.2151-0.558h-0.7711l-0.20252 0.5585zm0.53208-0.75724h0.6251l-0.1925-0.511c-0.0587-0.155-0.1023-0.283-0.1308-0.382-0.0235 0.118-0.0566 0.235-0.0993 0.352zm1.1824 0.75724v-1.844h0.24403v1.6264h0.90819v0.21761zm1.2868 0v-1.844h0.24403v1.844zm0.39117-0.59246 0.23019-0.02013c0.0109 0.09225 0.03627 0.16793 0.0761 0.22705s0.10168 0.10692 0.18554 0.1434 0.1782 0.05472 0.28302 0.05472c0.09308 0 0.17526-0.01383 0.24654-0.04151 0.07128-0.02767 0.12432-0.06562 0.15912-0.11384s0.0522-0.10084 0.0522-0.15786c-0.000001-0.05786-0.01677-0.10839-0.05031-0.15158-0.03355-0.04319-0.08889-0.07945-0.16604-0.10881-0.04948-0.01928-0.15891-0.04927-0.32831-0.08994-0.16939-0.04067-0.28805-0.07903-0.35598-0.11509-0.08805-0.04612-0.15367-0.10336-0.19686-0.1717s-0.06478-0.14486-0.06478-0.22956c0-0.09308 0.02641-0.18008 0.07925-0.26101 0.05283-0.08092 0.12998-0.14235 0.23145-0.18428s0.21426-0.06289 0.33837-0.06289c0.13669 0 0.25724 0.02202 0.36164 0.06604 0.1044 0.04403 0.1847 0.10881 0.24088 0.19434 0.05618 0.08554 0.08637 0.18239 0.09057 0.29057l-0.23396 0.01761c-0.01258-0.11656-0.05514-0.20461-0.12767-0.26415-0.07254-0.05954-0.17967-0.08931-0.32139-0.08931-0.14759 0-0.25514 0.02704-0.32265 0.08113s-0.10126 0.11929-0.10126 0.1956c0 0.06625 0.0239 0.12076 0.0717 0.16352 0.04696 0.04277 0.1696 0.08658 0.36793 0.13145 0.19832 0.04486 0.33438 0.08407 0.40818 0.11761 0.10734 0.04947 0.18658 0.11216 0.23774 0.18805 0.05115 0.0759 0.07673 0.16332 0.07673 0.26227-0.000002 0.09811-0.02809 0.19056-0.08428 0.27736-0.05619 0.08679-0.1369 0.1543-0.24214 0.20252s-0.22369 0.07233-0.35535 0.07233c-0.16688 0-0.30671-0.02432-0.4195-0.07296-0.11279-0.04863-0.20126-0.1218-0.26541-0.2195s-0.09791-0.20818-0.10126-0.33145zm1.4025 0.59246 0.70818-1.844h0.2629l0.75472 1.844h-0.27799l-0.2151-0.5585h-0.77108l-0.20252 0.5585zm0.53208-0.75724h0.62516l-0.19246-0.5107c-0.0587-0.15514-0.10231-0.2826-0.13082-0.38239-0.02348 0.11824-0.05661 0.23564-0.09937 0.3522zm1.1924 0.75724v-1.844h0.63523c0.1434 0 0.25283 0.0088 0.3283 0.02641 0.10566 0.02432 0.19581 0.06834 0.27044 0.13208 0.09727 0.08218 0.17002 0.18721 0.21824 0.3151 0.04822 0.12788 0.07233 0.27401 0.07233 0.43837-0.000002 0.14004-0.01635 0.26415-0.04906 0.37233s-0.07464 0.1977-0.12579 0.26856-0.10713 0.12662-0.16793 0.1673c-0.0608 0.04067-0.13418 0.07149-0.22013 0.09245-0.08596 0.02096-0.1847 0.03145-0.29623 0.03145h-0.66542zm0.24403-0.21761h0.39372c0.12159 0 0.21698-0.01132 0.28617-0.03396 0.06918-0.02264 0.12432-0.05451 0.16541-0.0956 0.05786-0.05786 0.10293-0.13564 0.13522-0.23334 0.03228-0.0977 0.04842-0.21614 0.04843-0.35535-0.000002-0.19288-0.03166-0.3411-0.09497-0.44466s-0.14025-0.17296-0.23082-0.20818c-0.06541-0.02516-0.17065-0.03773-0.31573-0.03773h-0.38743v1.4088zm1.4239 0.21761v-1.844h1.3333v0.21761h-1.0893v0.56479h1.0201v0.21635h-1.0201v0.62768h1.1321v0.21761zm1.4339-0.59246 0.23019-0.02013c0.0109 0.09225 0.03627 0.16793 0.0761 0.22705s0.10168 0.10692 0.18553 0.1434c0.08386 0.03648 0.1782 0.05472 0.28302 0.05472 0.09308 0 0.17526-0.01383 0.24654-0.04151 0.07128-0.02767 0.12432-0.06562 0.15912-0.11384s0.0522-0.10084 0.0522-0.15786c0-0.05786-0.01677-0.10839-0.05031-0.15158-0.03355-0.04319-0.08889-0.07945-0.16604-0.10881-0.04947-0.01928-0.15891-0.04927-0.32831-0.08994-0.16939-0.04067-0.28805-0.07903-0.35598-0.11509-0.08805-0.04612-0.15367-0.10336-0.19686-0.1717s-0.06478-0.14486-0.06478-0.22956c0-0.09308 0.02641-0.18008 0.07925-0.26101 0.05283-0.08092 0.12998-0.14235 0.23145-0.18428s0.21426-0.06289 0.33837-0.06289c0.13669 0 0.25724 0.02202 0.36164 0.06604 0.1044 0.04403 0.1847 0.10881 0.24088 0.19434 0.05618 0.08554 0.08637 0.18239 0.09057 0.29057l-0.23396 0.01761c-0.01258-0.11656-0.05514-0.20461-0.12767-0.26415-0.07254-0.05954-0.17967-0.08931-0.32139-0.08931-0.14759 0-0.25514 0.02704-0.32264 0.08113-0.06751 0.05409-0.10126 0.11929-0.10126 0.1956 0 0.06625 0.0239 0.12076 0.0717 0.16352 0.04696 0.04277 0.1696 0.08658 0.36793 0.13145 0.19832 0.04486 0.33438 0.08407 0.40818 0.11761 0.10734 0.04947 0.18658 0.11216 0.23774 0.18805 0.05115 0.0759 0.07673 0.16332 0.07673 0.26227 0 0.09811-0.02809 0.19056-0.08428 0.27736-0.05619 0.08679-0.1369 0.1543-0.24214 0.20252-0.10525 0.04822-0.2237 0.07233-0.35535 0.07233-0.16688 0-0.30671-0.02432-0.4195-0.07296-0.11279-0.04863-0.20126-0.1218-0.26541-0.2195s-0.09791-0.20818-0.10126-0.33145zm-11.656 3.141v-1.844h0.24403v1.844zm0.47167 0v-1.844h0.25032l0.96856 1.4478v-1.4478h0.2339v1.844h-0.2503l-0.9685-1.449v1.4491zm2.1346 0v-1.626h-0.6076v-0.21761h1.4617v0.21761h-0.6101v1.6264zm0.91193 0v-1.844h1.3333v0.21761h-1.0893v0.56479h1.0202v0.216h-1.0202v0.62768h1.1321v0.21761zm1.5207 0v-1.844h0.81762c0.16436 0 0.28931 0.01656 0.37485 0.04969 0.08554 0.03312 0.15388 0.09161 0.20503 0.17547s0.07673 0.17652 0.07673 0.27799c-0.000001 0.13082-0.04235 0.24109-0.12704 0.33082-0.0847 0.08973-0.21552 0.14675-0.39246 0.17107 0.06457 0.03103 0.11363 0.06164 0.14717 0.09183 0.07128 0.06541 0.13878 0.14717 0.20252 0.24528l0.32076 0.50189h-0.308l-0.244-0.383c-0.07128-0.11069-0.12998-0.19539-0.1761-0.25409s-0.08742-0.09979-0.1239-0.12327-0.07359-0.03983-0.11132-0.04905c-0.02768-0.0059-0.07296-0.0088-0.13585-0.0088h-0.28302v0.81888h-0.244zm0.24403-1.0302h0.52453c0.11153 0 0.19874-0.01153 0.26164-0.03459 0.06289-0.02306 0.11069-0.05996 0.1434-0.11069 0.03271-0.05074 0.04905-0.10587 0.04906-0.16541-0.000001-0.08721-0.03166-0.15891-0.09497-0.2151-0.06331-0.05618-0.16332-0.08428-0.3-0.08428h-0.58365v0.61007zm1.3321 0.43774 0.23019-0.02013c0.0109 0.09224 0.03627 0.16793 0.0761 0.22705s0.10168 0.10692 0.18554 0.1434 0.1782 0.05471 0.28302 0.05471c0.09308 0 0.17526-0.01383 0.24654-0.04151s0.12432-0.06562 0.15912-0.11384 0.0522-0.10084 0.0522-0.15786c-0.000001-0.05786-0.01678-0.10839-0.05032-0.15157-0.03354-0.04319-0.08889-0.07946-0.16604-0.10881-0.04947-0.01928-0.15891-0.04927-0.3283-0.08994-0.1694-0.04067-0.28806-0.07904-0.35598-0.1151-0.08805-0.04612-0.15367-0.10336-0.19686-0.1717s-0.06478-0.14487-0.06478-0.22956c0-0.09308 0.02642-0.18008 0.07925-0.26101 0.05283-0.08092 0.12998-0.14235 0.23145-0.18428s0.21426-0.06289 0.33837-0.06289c0.13669 0.000004 0.25724 0.02202 0.36164 0.06604s0.1847 0.1088 0.24088 0.19434 0.08637 0.18239 0.09057 0.29057l-0.23396 0.01761c-0.01258-0.11656-0.05514-0.20461-0.12768-0.26415s-0.17967-0.08931-0.32139-0.08931c-0.14759 0-0.25514 0.02704-0.32264 0.08113-0.06751 0.05409-0.10126 0.11929-0.10126 0.1956-0.000001 0.06625 0.0239 0.12076 0.0717 0.16352 0.04696 0.04277 0.1696 0.08658 0.36793 0.13145 0.19833 0.04486 0.33438 0.08407 0.40818 0.11761 0.10734 0.04948 0.18658 0.11216 0.23774 0.18805 0.05115 0.07589 0.07673 0.16332 0.07673 0.26227-0.000003 0.09811-0.0281 0.19057-0.08428 0.27736-0.05619 0.0868-0.1369 0.1543-0.24214 0.20252s-0.22369 0.07232-0.35535 0.07232c-0.16688 0-0.30671-0.02432-0.4195-0.07296-0.11279-0.04863-0.20126-0.1218-0.26541-0.2195-0.06415-0.09769-0.09791-0.20818-0.10126-0.33145zm2.0742 0.59246v-1.626h-0.607v-0.21761h1.4616v0.21761h-0.61007v1.6264zm0.70438 0 0.70818-1.844h0.2629l0.75472 1.844h-0.27799l-0.2151-0.5585h-0.77108l-0.20252 0.5585zm0.53208-0.75724h0.62516l-0.19246-0.5107c-0.0587-0.15514-0.10231-0.2826-0.13082-0.38239-0.02348 0.11824-0.05661 0.23564-0.09937 0.3522zm1.6616 0.75724v-1.6264h-0.60756v-0.21761h1.4616v0.21761h-0.61007v1.6264zm0.91193 0v-1.844h1.3333v0.21761h-1.0893v0.56479h1.0201v0.21635h-1.0201v0.62768h1.1321v0.217zm-11.264 2.55v-1.844h0.69561c0.12243 0 0.21593 0.0059 0.28051 0.01761 0.090565 0.01509 0.16646 0.04382 0.22767 0.08616 0.061215 0.04236 0.11048 0.10168 0.1478 0.17799 0.037312 0.07631 0.055974 0.16017 0.055975 0.25158-0.000001 0.15682-0.049894 0.28952-0.14969 0.39812-0.099793 0.1086-0.28009 0.1629-0.54088 0.1629h-0.473v0.74969zm0.24403-0.9673h0.47674c0.15765 0 0.2696-0.02935 0.33585-0.08805 0.066245-0.0587 0.09937-0.1413 0.099372-0.2478-0.0000026-0.07715-0.019498-0.14319-0.058492-0.19812-0.038996-0.05492-0.090359-0.09119-0.15409-0.1088-0.041089-0.0109-0.11698-0.01635-0.22768-0.01635h-0.4717v0.65913zm1.0755 0.9673 0.70818-1.844h0.2629l0.75472 1.844h-0.278l-0.2151-0.559h-0.7711l-0.2025 0.559zm0.5321-0.758h0.6251l-0.1924-0.51c-0.0587-0.155-0.1023-0.283-0.1308-0.383-0.02348 0.11824-0.056606 0.23564-0.099372 0.3522zm1.1962 0.75724v-1.844h0.81762c0.16436 0 0.28931 0.01656 0.37485 0.04969 0.08553 0.03312 0.15388 0.09162 0.20503 0.17547 0.05115 0.08386 0.07673 0.17652 0.07673 0.27799-0.000002 0.13082-0.04235 0.24109-0.12705 0.33082-0.0847 0.08972-0.21552 0.14675-0.39246 0.17107 0.06457 0.03103 0.11363 0.06163 0.14717 0.09182 0.07128 0.06541 0.13878 0.14717 0.20252 0.24529l0.32076 0.50189h-0.30692l-0.24403-0.38365c-0.07128-0.11069-0.12998-0.19539-0.1761-0.2541-0.04612-0.0587-0.08742-0.09979-0.1239-0.12327-0.03647-0.02348-0.07358-0.03983-0.11132-0.04906-0.027675-0.0059-0.072957-0.0088-0.13585-0.0088h-0.2835v0.81887h-0.244zm0.24403-1.0302h0.52453c0.11153 0 0.19874-0.01154 0.26164-0.03459 0.06289-0.02306 0.11069-0.05996 0.1434-0.11069s0.04905-0.10587 0.04906-0.16541c-0.000002-0.08721-0.03166-0.15891-0.09497-0.21509s-0.16332-0.08428-0.3-0.08428h-0.5837v0.61007zm1.405 1.0302v-1.844h0.24403v0.91448l0.91573-0.91448h0.33082l-0.77359 0.74718 0.80756 1.0969h-0.32202l-0.65661-0.93334-0.30189 0.29434v0.639zm1.8541 0-0.48931-1.844h0.25032l0.28051 1.2088c0.03019 0.12662 0.05618 0.25241 0.07799 0.37736 0.04696-0.19707 0.07463-0.3107 0.08302-0.34088l0.35095-1.2453h0.29434l0.26415 0.93334c0.06624 0.23145 0.11404 0.44906 0.1434 0.65284 0.02348-0.11657 0.05408-0.25032 0.09182-0.40126l0.28931-1.1849h0.24529l-0.50567 1.844h-0.23522l-0.387-1.404c-0.03271-0.1174-0.05199-0.18952-0.05786-0.21635-0.01929 0.0847-0.03732 0.15681-0.05409 0.21635l-0.3912 1.405zm1.7069 0 0.70818-1.844h0.2629l0.75473 1.844h-0.278l-0.215-0.558h-0.771l-0.20252 0.5585zm0.53208-0.75724h0.62516l-0.192-0.51c-0.0587-0.15514-0.10231-0.2826-0.13082-0.38239-0.02348 0.11824-0.05661 0.23564-0.09937 0.3522zm1.7119 0.75724v-0.78114l-0.7107-1.0629h0.29686l0.36353 0.55598c0.06709 0.10399 0.12956 0.20797 0.18742 0.31195 0.05534-0.09644 0.12243-0.20503 0.20126-0.32579l0.35724-0.54214h0.28428l-0.73586 1.0629v0.78114z"/>
</svg>
